<svg width="21" height="21" viewBox="0 0 21 21" fill="none" xmlns="http://www.w3.org/2000/svg">
<path fill-rule="evenodd" clip-rule="evenodd" d="M11.2168 21H1.15904C0.518731 21 0 20.4809 0 19.8409V1.15903C0 0.518811 0.518813 0 1.15904 0H19.841C20.4811 0 21 0.518811 21 1.15903V19.8409C21 20.481 20.481 21 19.841 21H14.4897V12.8676H17.2194L17.6281 9.69832H14.4897V7.67491C14.4897 6.75732 14.7445 6.132 16.0603 6.132L17.7386 6.13127V3.2966C17.4483 3.25798 16.4521 3.17169 15.2931 3.17169C12.8734 3.17169 11.2168 4.64867 11.2168 7.36103V9.69832H8.48011V12.8676H11.2168V21Z" fill="white"/>
</svg>
