<svg width="290" height="300" viewBox="0 0 290 300" fill="none" xmlns="http://www.w3.org/2000/svg">
<circle cx="145" cy="145" r="145" fill="#F93649"/>
<path d="M138.559 299.02C89.2992 299.02 86.4561 299.02 86.4561 299.02C86.4561 299.02 85.7872 288.39 104.369 285.151C113.734 283.513 120.238 284.332 120.238 284.332L119.996 275.861L119.587 261.508L119.011 241.515L129.603 242.743C129.603 242.743 132.167 254.08 134.564 266.721C137.054 279.789 139.396 294.254 138.559 299.02Z" fill="#FFD100"/>
<path d="M134.565 266.721C129.51 265.288 123.992 263.258 119.588 261.527L119.012 241.533L129.603 242.762C129.603 242.743 132.168 254.081 134.565 266.721Z" fill="#FAAA19"/>
<path d="M132.892 290.233C127.354 284.071 120.238 284.332 120.238 284.332L119.996 275.861C124.623 277.611 129.51 282.507 132.892 290.233Z" fill="#FAAA19"/>
<path d="M190.588 288.036C234.367 265.437 236.913 264.115 236.913 264.115C236.913 264.115 232.639 254.36 214.652 260.019C205.584 262.868 200.158 266.572 200.158 266.572L196.497 258.94L190.291 246.001L181.651 227.962L172.806 233.901C172.806 233.901 175.723 245.145 179.346 257.487C183.119 270.239 187.671 284.183 190.588 288.036Z" fill="#FFD100"/>
<path d="M179.365 257.487C183.212 253.894 187.169 249.557 190.31 246.001L181.669 227.962L172.824 233.901C172.806 233.901 175.723 245.145 179.365 257.487Z" fill="#FAAA19"/>
<path d="M191.611 277.629C193.711 269.606 200.159 266.572 200.159 266.572L196.498 258.939C193.19 262.606 191.072 269.196 191.611 277.629Z" fill="#FAAA19"/>
<path d="M269.431 142.328C268.502 145.4 253.135 150.24 253.135 150.24C253.135 150.24 253.079 150.501 252.968 150.966C252.094 154.838 247.672 173.156 239.793 180.081C223.497 194.397 199.935 195.831 195.215 190.86C194.992 190.693 194.769 190.507 194.584 190.32C191.35 187.36 192.447 184.084 192.447 184.084C193.376 184.084 199.21 186.243 212.441 179.765C225.652 173.305 237.34 156.048 238.567 144.655C233.029 136.65 224.742 131.419 228.421 128.645C232.119 125.871 238.251 133.262 239.793 137.879C241.335 137.823 242.357 137.507 242.357 137.507C242.357 137.507 240.313 119.542 243.379 117.68C246.445 115.819 246.966 130.935 247.077 137.078C254.454 123.116 255.383 118.183 257.223 120.957C259.062 123.712 251.89 138.419 251.797 138.623C252.001 138.456 264.117 128.962 266.235 131.698C267.703 133.597 258.431 138.996 254.566 142.105C254.77 143.445 255.086 143.538 255.086 143.538C255.086 143.538 270.341 139.238 269.431 142.328Z" fill="#FFD100"/>
<path d="M252.968 150.966C252.095 154.838 247.672 173.156 239.793 180.081C223.497 194.397 199.936 195.831 195.216 190.86C194.993 190.693 194.77 190.506 194.584 190.32C194.621 190.264 194.658 190.209 194.695 190.153C215.879 186.206 221.305 185.35 229.351 179.113C238.734 171.834 242.283 163.662 247.245 150.165C249.53 150.649 253.135 150.24 253.135 150.24L252.968 150.966Z" fill="#FAAA19"/>
<path d="M239.272 137.86C239.272 137.879 239.272 137.879 239.272 137.86C239.272 137.86 246.631 139.2 246.352 146.591C248.545 141.807 246.761 137.823 241.837 137.488L239.272 137.86Z" fill="#FAAA19"/>
<path d="M246.761 143.873C247.021 143.724 251.165 143.761 252.094 146.386C252.912 144.841 251.369 140.578 246.464 141.62C246.557 143.203 246.761 143.873 246.761 143.873Z" fill="#FAAA19"/>
<path d="M9.91815 142.328C10.8472 145.4 26.2144 150.24 26.2144 150.24C26.2144 150.24 26.2701 150.5 26.363 150.966C27.2364 154.838 31.6589 173.156 39.5375 180.081C55.8338 194.397 79.3955 195.831 84.1153 190.86C84.3382 190.693 84.5612 190.506 84.747 190.32C87.9803 187.36 86.8839 184.084 86.8839 184.084C85.9548 184.084 80.1202 186.243 66.8899 179.765C53.6783 173.305 41.9903 156.048 40.7639 144.655C46.3013 136.65 54.5888 131.419 50.9096 128.645C47.2118 125.871 41.0612 133.262 39.5375 137.879C37.9952 137.823 36.9732 137.506 36.9732 137.506C36.9732 137.506 39.0172 119.542 35.9512 117.68C32.8853 115.837 32.365 130.935 32.2535 137.078C24.8765 123.116 23.9474 118.183 22.1078 120.957C20.2682 123.712 27.4408 138.419 27.5337 138.623C27.3293 138.456 15.214 128.962 13.0956 131.698C11.6277 133.597 20.9 138.996 24.765 142.105C24.5606 143.445 24.2447 143.538 24.2447 143.538C24.2447 143.538 9.00764 139.238 9.91815 142.328Z" fill="#FFD100"/>
<path d="M26.3821 150.966C27.2554 154.838 31.6779 173.156 39.5566 180.082C55.8528 194.397 79.4145 195.831 84.1343 190.86C84.3573 190.693 84.5802 190.507 84.7661 190.32C84.7289 190.265 84.6917 190.209 84.6546 190.153C63.4713 186.206 58.0454 185.35 49.9995 179.114C40.6157 171.835 37.0666 163.662 32.1053 150.166C29.8197 150.65 26.2148 150.24 26.2148 150.24L26.3821 150.966Z" fill="#FAAA19"/>
<path d="M37.5124 137.507C32.5883 137.842 30.823 141.826 32.9971 146.61C32.7183 139.219 40.0767 137.879 40.0767 137.879L37.5124 137.507Z" fill="#FAAA19"/>
<path d="M32.5883 143.873C32.3282 143.724 28.1844 143.762 27.2554 146.386C26.4378 144.841 27.98 140.578 32.8856 141.621C32.7927 143.203 32.5883 143.873 32.5883 143.873Z" fill="#FAAA19"/>
<path d="M195.105 215.341C193.804 220.219 191.648 224.724 188.898 228.763C178.753 243.768 160.635 252.536 148.371 251.885C132.8 251.065 101.638 250.656 86.8842 216.979C72.1302 183.303 68.4324 131.96 87.293 89.2544C97.5129 66.0773 110.557 54.3492 123.137 48.7644C133.747 44.0359 144.042 43.6822 152.069 44.5013C180.351 47.3682 195.123 72.0159 196.349 83.5206C197.576 95.0254 187.746 128.702 192.243 155.807C196.74 182.893 201.255 192.332 195.105 215.341Z" fill="#FFD100"/>
<path d="M110.818 171.443C109.276 169.619 107.547 168.242 106.321 166.212C105.058 164.127 104.184 161.949 103.497 159.604C101.806 153.87 101.936 147.857 101.843 141.956C101.824 141.081 100.449 140.82 100.263 141.732C98.9627 148.173 97.9222 154.782 99.0742 161.316C99.5573 164.034 100.598 166.734 102.047 169.079C102.828 170.345 103.738 171.537 104.742 172.616C105.875 173.826 107.027 174.701 108.588 175.278C109.536 175.632 110.706 175.036 111.19 174.217C111.728 173.305 111.487 172.244 110.818 171.443Z" fill="#FAAA19"/>
<path d="M173.327 152.343C172.064 154.13 171.45 156.606 170.744 158.673C170.001 160.869 169.276 163.085 168.626 165.3C168.106 167.087 170.8 167.795 171.395 166.063C172.156 163.867 172.825 161.651 173.513 159.436C174.145 157.332 175.055 155.024 175.055 152.809C175.037 151.841 173.829 151.636 173.327 152.343Z" fill="#FAAA19"/>
<path d="M117.748 74.6582C117.748 74.6582 104.927 84.7668 109.832 103.606C114.887 123.321 128.005 127.025 140.715 124.419C155.859 121.329 172.137 104.165 162.382 84.2455C147.2 53.3242 117.748 74.6582 117.748 74.6582Z" fill="#FAAA19"/>
<path d="M113.716 132.368C113.716 132.368 105.113 140.578 106.543 153.516C107.974 166.454 117.209 178.369 138.523 177.345C159.836 176.321 165.057 161.279 167.008 153.926C168.644 147.764 167.417 140.168 161.062 131.884C156.658 126.15 113.716 132.368 113.716 132.368Z" fill="#FAAA19"/>
<path d="M195.104 215.34C193.803 220.218 191.648 224.723 188.898 228.762C194.937 204.617 184.271 170.14 179.923 147.15C174.181 116.749 196.052 94.708 176.225 69.7252C158.925 47.9444 140.641 43.4765 123.118 48.7448C133.728 44.0164 144.023 43.6627 152.05 44.4818C180.332 47.3486 195.104 71.9963 196.33 83.5011C197.557 95.0058 187.727 128.682 192.224 155.787C196.739 182.892 201.255 192.331 195.104 215.34Z" fill="#FFDF5A"/>
<path d="M180.722 205.734C176.634 215.489 166.73 225.691 149.486 227.627C141.793 228.315 134.974 227.794 129.065 226.472C114.831 223.289 105.893 215.452 103.069 208.936C99.0736 199.702 100.913 189.538 109.832 185.219C111.17 184.568 112.397 184.251 113.567 184.158C120.201 183.674 124.958 190.86 136.795 191.12C150.935 191.437 153.017 181.254 161.787 179.355C165.764 178.499 171.375 177.717 176.3 181.887C178.381 183.655 180.332 186.318 182.004 190.227C183.546 193.894 183.249 199.74 180.722 205.734Z" fill="#732B60"/>
<path d="M147.349 216.624C145.417 215.061 137.204 202.458 147.962 198.753C158.721 195.048 151.344 205.213 155.655 207.074C159.966 208.917 162.419 202.141 160.877 196.594C159.334 191.046 165.225 191.176 169.517 191.884C173.791 192.591 176.876 203.984 171.022 211.077C165.169 218.17 153.797 221.856 147.349 216.624Z" fill="#591B4C"/>
<path d="M176.3 181.887C175.743 184.679 172.993 188.589 170.986 190.525C163.442 197.785 158.517 201.527 142.593 205.045C128.025 208.266 119.774 200.894 115.724 196.538C113.921 194.62 113.234 191.865 113.159 189.054C113.104 187.379 113.289 185.685 113.568 184.139C120.202 183.655 124.959 190.841 136.795 191.102C150.936 191.418 153.017 181.235 161.788 179.336C164.649 178.722 168.384 178.126 172.082 179.43C173.513 179.951 174.925 180.733 176.3 181.887Z" fill="white"/>
<path d="M180.723 205.734C176.635 215.489 166.731 225.691 149.487 227.627C148.149 227.757 146.848 227.832 145.566 227.887C139.453 228.129 133.952 227.571 129.065 226.473C131.834 222.005 137.316 214.614 143.931 213.385C153.538 211.58 156.529 213.981 156.529 213.981C156.529 213.981 164.761 200.578 180.723 205.734Z" fill="#C1472A"/>
<path d="M172.082 179.448C170.205 180.509 167.715 181.98 164.761 183.916C157.793 188.44 153.277 197.673 136.684 197.673C124.55 197.673 116.56 192.07 113.159 189.054C113.104 187.379 113.289 185.685 113.568 184.139C120.202 183.655 124.959 190.841 136.795 191.102C150.936 191.418 153.017 181.235 161.788 179.337C164.649 178.741 168.384 178.145 172.082 179.448Z" fill="#FDDCC0"/>
<path d="M156.529 213.981C156.529 213.981 150.992 223.271 145.566 227.888C139.453 228.13 133.952 227.571 129.065 226.473C131.834 222.005 137.316 214.614 143.931 213.386C153.519 211.58 156.529 213.981 156.529 213.981Z" fill="#F26F4B"/>
<path d="M180.035 182.687C175.687 177.493 168.05 174.664 161.472 176.842C157.737 178.089 154.708 180.658 151.828 183.264C147.127 187.509 141.849 190.618 135.216 189.687C128.991 188.812 123.676 184.884 117.73 183.041C113.958 181.868 109.684 181.906 106.209 183.953C103.181 185.74 101.081 188.663 99.8358 191.921C97.03 199.256 100.077 206.981 104.704 212.79C109.591 218.914 116.392 223.512 123.583 226.51C138.542 232.746 156.287 231.015 169.741 221.912C176.021 217.648 181.317 211.598 183.64 204.263C185.962 197.003 184.996 188.626 180.035 182.687ZM181.057 197.934C180.574 204.878 176.541 210.854 171.394 215.284C160.301 224.816 144.302 228.055 130.31 224.145C123.528 222.247 117.154 218.784 111.933 214.018C107.101 209.606 102.474 203.407 103.162 196.463C103.422 193.838 104.611 191.102 106.47 189.166C108.662 186.895 111.672 186.038 114.794 186.504C122.023 187.602 128.396 192.535 135.773 193.317C144.432 194.229 149.691 189.761 155.841 184.456C158.313 182.315 161.081 180.342 164.389 179.839C167.232 179.411 170.224 180.044 172.769 181.384C178.864 184.642 181.521 191.251 181.057 197.934Z" fill="#FAAA19"/>
<path d="M162.363 96.3836C161.824 99.1574 160.951 101.782 159.854 104.035C156.38 111.016 145.918 121.478 127.671 116.154C118.417 113.455 113.604 107.572 111.616 101.038C109.684 94.7081 110.464 87.7085 112.452 82.4029C116.819 70.7678 126.797 63.7682 140.399 64.5873C152.087 65.2947 158.498 74.3607 161.099 79.5732C163.311 84.0597 163.534 90.5195 162.363 96.3836Z" fill="white"/>
<path d="M162.363 96.3833C161.824 99.1571 160.951 101.782 159.855 104.035C156.38 111.016 145.918 121.478 127.671 116.154C118.417 113.454 113.604 107.572 111.616 101.037C115.63 106.808 122.375 111.537 133.691 112.207C149.672 113.138 158.034 104.742 162.363 96.3833Z" fill="#FDDCC0"/>
<path d="M137.723 88.2668L155.58 86.3121C155.58 86.3121 154.354 73.3181 142.257 71.7357C130.142 70.1347 118.324 79.3869 116.93 89.7375C115.852 97.7424 120.832 108.093 133.096 108.875C148.501 109.861 154.614 96.4951 154.614 96.4951L137.723 88.2668Z" fill="#732B60"/>
<path d="M159.855 156.327C156.38 163.309 145.918 173.789 127.671 168.447C109.442 163.104 106.729 144.227 111.486 133.746C111.839 132.964 112.23 132.201 112.601 131.494C118.678 120.305 128.377 117.569 140.4 116.917C152.088 116.303 158.498 126.672 161.1 131.903C161.917 133.541 162.475 135.477 162.791 137.525C163.683 143.669 162.456 151.115 159.855 156.327Z" fill="white"/>
<path d="M159.855 156.327C156.38 163.308 145.918 173.789 127.671 168.446C109.442 163.104 106.729 144.227 111.486 133.746C111.839 132.964 112.23 132.201 112.601 131.493C111.672 137.823 109.684 162.564 134.918 165.412C156.677 167.869 161.546 147.969 162.772 137.544C163.683 143.668 162.456 151.115 159.855 156.327Z" fill="#FDDCC0"/>
<path d="M138.708 142.458L156.566 140.503C156.566 140.503 155.339 127.509 143.242 125.927C131.127 124.326 119.309 133.578 117.915 143.929C116.838 151.934 121.818 162.284 134.082 163.048C149.486 164.034 155.599 150.668 155.599 150.668L138.708 142.458Z" fill="#732B60"/>
</svg>
