<svg width="433" height="434" viewBox="0 0 433 434" fill="none" xmlns="http://www.w3.org/2000/svg">
<g clip-path="url(#clip0_487:3993)">
<path d="M263.742 267.49C263.742 267.49 267.603 281.657 274.419 300.121C284.895 328.421 302.388 366.826 323.675 379.717C364.101 404.19 386.665 387.539 401.035 375.822C421.785 358.836 429.709 338.895 424.505 324.124C419.301 309.353 405.4 303.277 392.339 310.226C379.311 317.175 362.355 346.28 343.25 344.535C329.686 343.293 308.432 314.825 295.706 290.956C290.502 281.187 286.708 272.224 285.466 266.181C264.178 263.126 263.742 267.49 263.742 267.49Z" fill="#F93649"/>
<path d="M263.742 267.49C263.742 267.49 267.603 281.657 274.419 300.121C282.578 297.267 289.629 294.145 295.706 290.956C290.502 281.187 286.708 272.224 285.466 266.181C264.178 263.126 263.742 267.49 263.742 267.49Z" fill="#732B60"/>
<path d="M312.494 352.692C312.494 352.726 312.494 352.726 312.494 352.692C312.964 353.666 328.141 383.946 353.995 388.076C364.873 389.821 383.978 386.129 405.064 362.663C410.94 356.15 416.615 347.858 415.271 339.868C414.734 336.646 413.089 333.49 409.832 330.502C398.55 320.062 386.362 339.633 375.517 351.786C364.638 363.938 346.406 370.888 335.091 367.43C323.944 364.039 312.83 353.062 312.494 352.692Z" fill="#FCDED8"/>
<path d="M312.494 352.692C312.494 352.726 312.494 352.726 312.494 352.692C319.042 362.26 339.523 382.537 365.075 373.976C390.66 365.416 393.313 342.688 405.501 337.921C409.832 336.209 412.988 337.485 415.271 339.902C414.734 336.679 413.089 333.524 409.832 330.536C398.55 320.095 386.362 339.667 375.517 351.82C364.638 363.972 346.406 370.921 335.091 367.464C323.944 364.039 312.83 353.062 312.494 352.692Z" fill="#F29088"/>
<path d="M404.292 345.374C404.493 344.669 404.863 344.064 405.366 343.527C406.172 342.789 407.18 342.319 408.321 342.319C408.892 342.285 409.429 342.42 409.933 342.688C410.436 342.856 410.907 343.158 411.276 343.561C411.679 343.93 411.981 344.4 412.149 344.904C412.417 345.407 412.518 345.944 412.518 346.515C412.485 346.884 412.417 347.254 412.384 347.623C412.182 348.328 411.813 348.932 411.309 349.469C410.504 350.208 409.496 350.678 408.355 350.678C407.784 350.711 407.247 350.577 406.743 350.309C406.239 350.141 405.769 349.839 405.4 349.436C404.997 349.066 404.695 348.596 404.527 348.093C404.258 347.589 404.158 347.052 404.158 346.482C404.191 346.112 404.258 345.743 404.292 345.374Z" fill="#587480"/>
<path d="M395.193 334.128C400.531 334.128 400.565 342.453 395.193 342.453C389.854 342.42 389.854 334.128 395.193 334.128Z" fill="#587480"/>
<path d="M394.488 356.385C394.656 356.015 394.79 355.646 394.958 355.31C395.26 354.773 395.629 354.337 396.133 354.035C396.402 353.766 396.737 353.565 397.14 353.464C397.677 353.162 398.282 353.061 398.886 353.061L400.095 353.229C400.464 353.397 400.834 353.531 401.169 353.699C401.707 354.001 402.143 354.371 402.445 354.874C402.848 355.31 403.117 355.848 403.251 356.418C403.385 356.821 403.453 357.258 403.453 357.728C403.486 358.365 403.352 358.936 403.05 359.507C402.949 359.742 402.848 360.01 402.748 360.245C402.345 360.917 401.807 361.454 401.136 361.857C400.431 362.26 399.692 362.461 398.853 362.461C398.047 362.461 397.275 362.26 396.569 361.857C395.898 361.454 395.361 360.917 394.958 360.245C394.857 360.01 394.756 359.742 394.656 359.507C394.353 358.97 394.253 358.365 394.253 357.728C394.286 357.224 394.353 356.788 394.488 356.385Z" fill="#587480"/>
<path d="M387.437 347.623C392.775 347.623 392.809 355.949 387.437 355.949C382.065 355.949 382.065 347.623 387.437 347.623Z" fill="#587480"/>
<path d="M383.072 369.041C383.273 368.302 383.676 367.631 384.213 367.094C385.086 366.288 386.127 365.785 387.336 365.785C387.94 365.751 388.511 365.885 389.048 366.154C389.585 366.322 390.055 366.624 390.458 367.06C390.895 367.463 391.197 367.933 391.365 368.47C391.634 369.007 391.768 369.578 391.734 370.182C391.667 370.585 391.634 370.954 391.566 371.357C391.365 372.096 390.962 372.767 390.425 373.304C389.552 374.11 388.511 374.614 387.302 374.614C386.698 374.647 386.127 374.513 385.59 374.244C385.053 374.077 384.583 373.774 384.18 373.338C383.743 372.935 383.441 372.465 383.273 371.928C383.004 371.391 382.87 370.82 382.904 370.216C382.971 369.813 383.038 369.444 383.072 369.041Z" fill="#587480"/>
<path d="M372.999 361.286C373.2 360.548 373.569 359.91 374.107 359.373C374.946 358.6 375.987 358.097 377.196 358.097C377.8 358.063 378.337 358.198 378.874 358.466C379.412 358.634 379.882 358.936 380.285 359.373C380.721 359.775 381.023 360.245 381.191 360.783C381.46 361.286 381.594 361.857 381.561 362.461C381.493 362.83 381.46 363.233 381.393 363.602C381.191 364.341 380.822 364.979 380.285 365.516C379.445 366.288 378.404 366.792 377.196 366.792C376.591 366.825 376.054 366.691 375.517 366.422C374.98 366.255 374.51 365.952 374.107 365.516C373.67 365.113 373.368 364.643 373.2 364.106C372.931 363.602 372.797 363.032 372.831 362.427C372.898 362.058 372.931 361.655 372.999 361.286Z" fill="#587480"/>
<path d="M371.857 379.078C375.181 379.078 375.181 384.248 371.857 384.248C368.533 384.282 368.533 379.078 371.857 379.078Z" fill="#587480"/>
<path d="M363.262 367.631C366.586 367.631 366.586 372.801 363.262 372.801C359.938 372.801 359.904 367.631 363.262 367.631Z" fill="#587480"/>
<path d="M353.391 378.877L353.861 379.045C354.935 379.381 355.774 380.153 356.077 381.261C356.379 382.369 356.077 383.544 355.271 384.35C354.465 385.155 353.256 385.457 352.182 385.155C351.074 384.853 350.302 384.014 349.966 382.94C349.899 382.772 349.865 382.604 349.798 382.47C349.126 380.388 351.309 378.172 353.391 378.877Z" fill="#587480"/>
<path d="M346.44 373.439C346.272 372.364 346.843 371.592 347.682 371.189C347.716 371.156 347.749 371.156 347.783 371.122C348.052 370.988 348.354 370.921 348.656 370.887C349.16 370.854 349.697 370.921 350.167 371.156C350.973 371.559 351.544 372.331 351.376 373.405V373.439C351.577 376.628 346.205 376.628 346.44 373.439C346.44 373.472 346.44 373.472 346.44 373.439Z" fill="#587480"/>
<path d="M286.708 262.656C286.708 262.656 292.013 273.802 306.686 284.511C314.475 290.184 324.884 295.757 338.55 299.483C377.968 310.226 399.457 292.568 406.575 276.286C417.252 251.847 418.226 239.862 417.085 203.606C416.111 172.318 416.413 170.237 422.322 164.328C428.232 158.42 434.376 156.204 432.664 142.507C430.952 128.811 416.111 116.524 398.853 119.411C381.594 122.298 370.514 136.162 364.202 153.753C357.89 171.344 367.056 203.706 368.936 231.57C370.85 259.434 366.754 266.785 357.52 271.687C351.141 275.077 338.717 275.312 324.683 269.505C318.437 266.92 311.89 263.16 305.376 257.956C295.807 258.191 286.708 262.656 286.708 262.656Z" fill="#F93649"/>
<path d="M286.708 262.656C286.708 262.656 292.013 273.802 306.686 284.511C315.013 279.039 320.754 273.734 324.716 269.505C318.471 266.92 311.924 263.16 305.41 257.956C295.807 258.191 286.708 262.656 286.708 262.656Z" fill="#732B60"/>
<path d="M394.32 263.63C393.514 267.893 394.253 270.478 395.629 271.72C397.677 273.6 401.136 272.492 402.714 269.706C422.524 234.49 405.467 181.214 409.362 169.498C413.257 157.782 422.692 150.396 418.461 140.795C415.876 134.954 408.993 134.383 401.707 137.069C392.272 140.56 382.199 149.523 380.117 159.662C374.14 188.365 401.975 223.211 394.32 263.63Z" fill="#FCDED8"/>
<path d="M395.629 271.72C397.677 273.6 401.136 272.492 402.714 269.706C422.524 234.49 405.467 181.214 409.362 169.498C413.257 157.782 422.692 150.396 418.461 140.795C415.876 134.954 408.993 134.383 401.707 137.069C405.904 138.378 409.966 141.198 408.791 147.207C405.601 157.345 398.08 154.458 394.32 171.244C390.559 188.029 408.22 225.997 405.031 245.401C402.714 259.568 401.169 267.39 395.629 271.72Z" fill="#F29088"/>
<path d="M402.882 147.006C403.05 146.637 403.184 146.301 403.352 145.932C403.62 145.394 404.023 144.992 404.527 144.656C404.963 144.253 405.467 143.984 406.071 143.85C406.139 143.817 406.239 143.817 406.306 143.783C407.817 143.347 409.698 143.783 410.772 144.958C411.007 145.26 411.242 145.562 411.477 145.898C411.88 146.603 412.115 147.375 412.115 148.214C412.149 148.852 412.014 149.423 411.712 149.994C411.511 150.564 411.209 151.068 410.772 151.471C409.63 152.612 407.885 153.116 406.306 152.646C406.239 152.612 406.139 152.612 406.071 152.578L404.997 152.109C404.46 151.84 404.057 151.437 403.721 150.934C403.452 150.665 403.251 150.329 403.15 149.926C402.882 149.389 402.747 148.819 402.747 148.181C402.781 147.811 402.848 147.409 402.882 147.006Z" fill="#587480"/>
<path d="M391.936 152.411C397.577 152.411 397.61 161.206 391.936 161.206C386.262 161.206 386.262 152.411 391.936 152.411Z" fill="#587480"/>
<path d="M383.072 173.862C383.139 173.392 383.206 172.956 383.24 172.486C383.407 172.083 383.575 171.68 383.743 171.244C383.878 171.042 384.012 170.841 384.18 170.64C384.415 170.27 384.717 169.935 385.086 169.733C385.422 169.431 385.791 169.196 386.228 169.062C386.631 168.894 386.664 168.827 386.933 168.793C387.369 168.726 387.806 168.659 388.276 168.625C388.947 168.592 389.619 168.726 390.19 169.062C390.626 169.196 390.996 169.397 391.298 169.7C391.835 170.035 392.272 170.505 392.574 171.11C392.607 171.143 392.607 171.177 392.641 171.177C392.809 171.58 392.977 171.982 393.145 172.385C393.346 173.057 393.38 173.762 393.245 174.433C393.145 175.272 393.212 175.037 392.876 175.809C392.742 176.246 392.54 176.615 392.204 176.951C392.07 177.152 391.902 177.354 391.734 177.522C391.399 177.79 391.029 178.059 390.693 178.327C390.291 178.495 389.888 178.663 389.485 178.831L388.142 178.999C387.437 179.032 386.765 178.864 386.161 178.562C385.724 178.428 385.355 178.227 385.019 177.891C384.65 177.656 384.314 177.354 384.113 176.984C383.81 176.649 383.575 176.279 383.441 175.843C383.105 175.239 382.971 174.567 383.005 173.862H383.072Z" fill="#587480"/>
<path d="M387.369 189.506C387.537 188.667 388.343 187.659 389.082 187.257C389.854 186.854 390.626 186.686 391.466 186.82C392.238 186.921 393.077 187.257 393.615 187.861C394.253 188.532 394.823 189.539 394.723 190.513C394.622 191.218 394.588 191.956 394.353 192.628C393.749 194.374 392.204 195.515 390.324 195.28C388.477 195.045 387.202 193.501 387.134 191.654C387.101 190.916 387.235 190.211 387.369 189.506Z" fill="#587480"/>
<path d="M392.54 206.963C393.346 205.586 394.857 204.714 396.435 204.714C398.013 204.714 399.524 205.586 400.33 206.963C400.733 207.668 400.934 208.44 400.934 209.246C400.934 210.051 400.733 210.823 400.33 211.528C400.296 211.629 400.229 211.73 400.196 211.864C399.793 212.502 399.289 213.039 398.651 213.408C397.98 213.811 397.241 214.013 396.469 214.013C395.696 214.013 394.958 213.811 394.286 213.408C393.648 213.006 393.111 212.502 392.742 211.864C392.708 211.763 392.641 211.663 392.607 211.528C392.204 210.823 392.003 210.051 392.003 209.246C391.936 208.406 392.137 207.668 392.54 206.963Z" fill="#587480"/>
<path d="M407.482 202.565C411.847 202.565 411.847 209.346 407.482 209.346C403.117 209.346 403.117 202.565 407.482 202.565Z" fill="#587480"/>
<path d="M404.225 184.403C409.832 184.403 409.832 193.098 404.225 193.098C398.617 193.098 398.617 184.403 404.225 184.403Z" fill="#587480"/>
<path d="M399.692 166.611C399.793 166.276 399.927 165.94 400.128 165.638C400.766 164.463 402.109 163.758 403.419 163.758C404.728 163.758 406.071 164.496 406.709 165.638C406.877 165.94 407.011 166.276 407.146 166.611C407.314 167.115 407.314 167.652 407.213 168.156C407.179 168.424 407.146 168.659 407.079 168.894C406.944 169.196 406.81 169.498 406.709 169.801C406.474 170.237 406.138 170.606 405.735 170.875C405.5 171.11 405.232 171.278 404.896 171.378C404.46 171.613 403.956 171.714 403.419 171.714C403.083 171.68 402.747 171.613 402.411 171.58C402.109 171.445 401.807 171.311 401.505 171.21C401.068 170.975 400.699 170.64 400.43 170.237C400.095 169.868 399.86 169.431 399.759 168.928C399.692 168.659 399.658 168.458 399.625 168.189C399.49 167.618 399.524 167.115 399.692 166.611Z" fill="#587480"/>
<path d="M404.628 221.834C410.537 221.834 410.537 230.999 404.628 230.999C398.718 231.033 398.718 221.834 404.628 221.834Z" fill="#587480"/>
<path d="M402.58 241.909C407.448 241.909 407.448 249.463 402.58 249.463C397.711 249.463 397.711 241.909 402.58 241.909Z" fill="#587480"/>
<path d="M210.389 392.675C215.593 410.937 223.416 426.547 256.456 432.657C289.495 438.733 322.937 423.526 315.55 407.882C308.163 392.238 262.533 397.442 253.4 374.446C247.793 360.346 250.21 330.703 251.721 306.298C252.661 290.889 253.266 277.528 251.251 271.485C234.295 265.845 229.964 270.612 229.964 270.612C229.964 270.612 229.192 286.76 223.685 308.547C223.349 309.923 222.98 311.333 222.577 312.777C216.03 336.612 205.151 374.412 210.389 392.675Z" fill="#F93649"/>
<path d="M229.93 270.578C229.93 270.578 229.158 286.726 223.652 308.513C233.12 308.58 242.521 307.909 251.721 306.264C252.662 290.855 253.266 277.494 251.251 271.451C234.262 265.811 229.93 270.578 229.93 270.578Z" fill="#732B60"/>
<path d="M75.2442 400.933C83.0675 415.268 148.239 430.912 178.659 378.777C190.915 357.761 200.484 330.435 207.132 307.641C214.384 282.731 218.179 263.227 218.179 263.227C218.179 263.227 196.018 258.896 195.582 260.172C195.313 260.978 186.953 281.724 177.551 302.538C171.843 315.194 165.732 327.884 160.83 336.176C143.874 364.845 129.101 361.387 105.228 368.773C75.815 377.87 66.1115 384.215 75.2442 400.933Z" fill="#F93649"/>
<path d="M195.615 260.172C195.347 260.977 186.986 281.724 177.585 302.538C187.154 304.854 197.093 306.633 207.166 307.607C214.418 282.697 218.212 263.193 218.212 263.193C218.212 263.193 196.018 258.862 195.615 260.172Z" fill="#732B60"/>
<path d="M27.4987 348.026C52.2781 364.106 85.72 365.852 111.809 349.335C125.743 340.506 142.195 316.235 154.451 295.589C165.128 277.662 172.616 262.421 172.616 262.421C172.616 262.421 159.151 255.908 146.124 254.599C142.162 262.119 135.379 272.996 126.918 283.336C118.759 293.373 109.022 302.907 98.7477 308.48C77.8968 319.76 64.8692 304.989 47.9131 288.942C30.9571 272.862 8.79674 276.789 2.28294 292.433C-4.19729 308.077 2.75301 331.946 27.4987 348.026Z" fill="#F93649"/>
<path d="M146.124 254.633C142.162 262.153 135.379 273.029 126.918 283.369C134.943 287.767 144.277 291.963 154.451 295.589C165.128 277.662 172.616 262.421 172.616 262.421C172.616 262.421 159.151 255.942 146.124 254.633Z" fill="#732B60"/>
<path d="M23.5368 330.368C46.0665 352.424 65.3393 354.639 76.1172 352.457C116.543 344.266 127.153 318.685 127.724 317.309V317.275C127.388 317.645 112.95 328.152 93.6441 330.636C83.034 334.665 65.4064 329.495 53.7219 318.92C53.2518 318.484 52.7817 318.047 52.3116 317.611C40.6942 306.163 27.2973 287.431 16.6872 298.576C13.6653 301.766 12.188 305.022 11.8522 308.278C11.0799 316.335 17.258 324.224 23.5368 330.368Z" fill="#FCDED8"/>
<path d="M11.8857 308.278C14.0346 305.727 17.0901 304.25 21.5221 305.693C33.9789 309.688 38.0753 332.18 64.164 339.096C90.1857 346.012 121.781 327.313 127.724 317.342V317.309C127.388 317.678 112.95 328.186 93.644 330.67C82.396 332.147 65.3392 329.327 53.7218 318.954C53.2517 318.517 52.7817 318.081 52.3116 317.644C40.6942 306.197 27.2973 287.464 16.6872 298.61C13.6653 301.766 12.2215 305.055 11.8857 308.278Z" fill="#F29088"/>
<path d="M23.1676 313.045C22.9326 312.34 22.5297 311.77 21.9925 311.266C21.1195 310.561 20.1122 310.158 18.9706 310.226C18.3998 310.226 17.8626 310.393 17.3925 310.696C16.8889 310.897 16.4524 311.199 16.1166 311.635C15.7473 312.038 15.4787 312.508 15.3443 313.012C15.1093 313.515 15.0422 314.053 15.0757 314.623C15.1429 314.993 15.21 315.362 15.3108 315.731C15.5458 316.436 15.9487 317.007 16.4859 317.51C17.3589 318.215 18.3662 318.618 19.5078 318.551C20.0786 318.551 20.6158 318.383 21.0859 318.081C21.5895 317.88 22.026 317.577 22.3618 317.141C22.7311 316.738 22.9997 316.268 23.134 315.765C23.3691 315.261 23.4362 314.724 23.4027 314.153C23.3019 313.75 23.2348 313.381 23.1676 313.045Z" fill="#587480"/>
<path d="M31.528 301.228C26.1893 301.564 26.7265 309.856 32.0652 309.52C37.4038 309.185 36.8666 300.893 31.528 301.228Z" fill="#587480"/>
<path d="M33.6435 323.418C33.4756 323.049 33.2741 322.713 33.1062 322.344C32.7705 321.84 32.3676 321.438 31.8639 321.135C31.5617 320.867 31.226 320.699 30.8231 320.598C30.2523 320.363 29.6815 320.263 29.0435 320.33L27.8348 320.598C27.4654 320.766 27.1297 320.968 26.7603 321.135C26.2567 321.471 25.8538 321.874 25.5516 322.378C25.1822 322.848 24.9472 323.385 24.8465 323.989C24.7457 324.425 24.7122 324.862 24.7457 325.298C24.7457 325.936 24.9472 326.507 25.2494 327.044C25.3837 327.279 25.4844 327.514 25.6187 327.749C26.0552 328.387 26.626 328.89 27.3311 329.259C28.0698 329.629 28.8085 329.763 29.6479 329.729C30.4537 329.662 31.1924 329.427 31.8639 328.957C32.5019 328.521 33.0055 327.95 33.3749 327.245C33.4756 326.977 33.5427 326.742 33.6435 326.473C33.8785 325.902 33.9792 325.298 33.9121 324.694C33.9121 324.257 33.8113 323.821 33.6435 323.418Z" fill="#587480"/>
<path d="M40.1573 314.22C34.8187 314.556 35.3559 322.848 40.6946 322.512C46.0332 322.177 45.496 313.885 40.1573 314.22Z" fill="#587480"/>
<path d="M45.8315 335.302C45.5629 334.564 45.16 333.959 44.5892 333.422C43.6826 332.684 42.5746 332.247 41.3994 332.348C40.7951 332.348 40.2243 332.516 39.7206 332.852C39.1834 333.053 38.7469 333.389 38.3776 333.859C37.9747 334.295 37.7061 334.765 37.5717 335.336C37.3367 335.873 37.236 336.444 37.3031 337.048C37.3703 337.451 37.471 337.82 37.5382 338.223C37.8068 338.962 38.2097 339.566 38.7805 340.103C39.6871 340.841 40.7951 341.278 41.9702 341.177C42.5746 341.177 43.1454 341.009 43.6491 340.674C44.1863 340.472 44.6228 340.136 44.9921 339.666C45.395 339.23 45.6636 338.76 45.7979 338.189C46.033 337.652 46.1337 337.082 46.0666 336.477C45.9994 336.074 45.9322 335.705 45.8315 335.302Z" fill="#587480"/>
<path d="M55.4345 326.91C55.1659 326.205 54.763 325.567 54.1922 325.063C53.2857 324.325 52.2112 323.922 51.036 323.989C50.4317 323.989 49.8944 324.157 49.3908 324.459C48.8536 324.661 48.4171 324.996 48.0477 325.433C47.6448 325.869 47.3762 326.339 47.2419 326.876C47.0069 327.413 46.9062 327.984 46.9733 328.588C47.0405 328.958 47.1412 329.36 47.2083 329.73C47.477 330.468 47.8799 331.073 48.4507 331.576C49.3572 332.315 50.4317 332.717 51.6068 332.65C52.2112 332.65 52.7484 332.482 53.2521 332.18C53.7893 331.979 54.2258 331.643 54.5951 331.207C54.998 330.77 55.2667 330.3 55.401 329.763C55.636 329.226 55.7367 328.655 55.6696 328.051C55.5688 327.682 55.5017 327.313 55.4345 326.91Z" fill="#587480"/>
<path d="M57.684 344.635C54.36 344.837 54.6958 350.006 58.0198 349.805C61.3439 349.57 61.0081 344.4 57.684 344.635Z" fill="#587480"/>
<path d="M65.541 332.617C62.2169 332.818 62.5527 337.988 65.8767 337.787C69.2008 337.585 68.865 332.416 65.541 332.617Z" fill="#587480"/>
<path d="M76.1176 343.225L75.6475 343.427C74.6066 343.83 73.8008 344.669 73.5658 345.777C73.3307 346.885 73.7337 348.06 74.5731 348.832C75.4125 349.57 76.6548 349.805 77.7292 349.436C78.8037 349.067 79.5088 348.16 79.811 347.086C79.8445 346.918 79.9117 346.75 79.9453 346.582C80.4825 344.468 78.1321 342.386 76.1176 343.225Z" fill="#587480"/>
<path d="M82.6983 337.351C82.799 336.276 82.1611 335.538 81.3217 335.202C81.2881 335.202 81.2545 335.169 81.1874 335.169C80.9188 335.068 80.6166 335.001 80.3144 335.001C79.7772 334.967 79.2735 335.101 78.837 335.37C78.0648 335.806 77.5611 336.646 77.7962 337.686V337.72C77.7962 340.909 83.1348 340.573 82.7319 337.418C82.6983 337.384 82.6983 337.384 82.6983 337.351Z" fill="#587480"/>
<path d="M11.3821 231.502C13.3967 249.127 28.7747 272.324 69.6034 273.634C84.0413 274.104 95.793 271.72 104.993 268.497C121.815 262.555 130.007 253.659 130.007 253.659C130.007 253.659 122.62 246.71 113.488 243.655C104.086 247.381 95.2222 249.06 87.4325 249.295C74.3377 249.731 64.2312 246.106 59.5977 241.473C52.2109 234.087 50.4649 225.829 60.4707 199.778C70.4764 173.728 88.7084 145.461 87.8354 126.796C86.9624 108.131 80.4486 91.614 64.802 83.7921C49.1555 75.9702 31.36 83.3557 25.6856 95.9446C20.0448 108.534 25.2491 112.461 29.1776 119.847C33.0724 127.232 32.8038 129.314 22.6638 158.957C10.9456 193.266 8.32669 204.982 11.3821 231.502Z" fill="#F93649"/>
<path d="M87.4324 249.295C90.7564 254.532 96.1958 261.145 104.993 268.464C121.815 262.522 130.007 253.626 130.007 253.626C130.007 253.626 122.62 246.677 113.488 243.622C104.086 247.381 95.2221 249.06 87.4324 249.295Z" fill="#732B60"/>
<path d="M23.5369 228.078C24.2084 228.28 24.9807 228.28 25.8537 228.011C28.7412 227.138 27.2975 214.113 45.8316 185.712C52.9162 174.835 67.8576 152.679 68.4284 128.072C68.8985 107.426 59.43 97.3883 51.4052 93.9976C49.8607 93.3598 48.3498 92.9234 47.0067 92.7555C38.6127 91.5806 33.4083 97.0861 31.058 105.21C28.7412 113.334 37.7397 113.905 38.3105 129.549C38.6462 138.344 23.3019 181.315 20.045 204.848C18.299 217.537 19.3399 226.87 23.5369 228.078Z" fill="#FCDED8"/>
<path d="M23.5369 228.078C21.5895 189.573 43.0783 159.158 47.2082 138.713C51.7074 116.456 40.2579 109.809 42.5075 103.632C44.8243 97.321 48.5848 96.1796 51.3717 93.9639C49.8272 93.3261 48.3162 92.8897 46.9732 92.7218C38.5791 91.5469 33.3748 97.0524 31.0244 105.177C28.7077 113.301 37.7061 113.871 38.2769 129.515C38.6127 138.311 23.2683 181.281 20.0114 204.814C18.299 217.537 19.3399 226.87 23.5369 228.078Z" fill="#F29088"/>
<path d="M57.8516 113.065C64.8691 113.065 64.9026 124.009 57.8516 124.009C50.8342 124.009 50.8006 113.065 57.8516 113.065Z" fill="#587480"/>
<path d="M57.8517 135.86C65.2049 135.86 65.2049 147.274 57.8517 147.274C50.5321 147.274 50.4985 135.86 57.8517 135.86Z" fill="#587480"/>
<path d="M49.1554 160.031C54.9977 160.031 54.9977 169.095 49.1554 169.095C43.3131 169.128 43.3131 160.031 49.1554 160.031Z" fill="#587480"/>
<path d="M32.8709 178.36C32.8709 177.991 32.9716 177.622 33.1731 177.286C33.2738 176.917 33.4417 176.615 33.7103 176.346C34.0125 175.876 34.4154 175.54 34.8855 175.272C35.2212 175.138 35.557 175.003 35.8927 174.835C36.2621 174.802 36.6314 174.735 37.0008 174.701C37.3701 174.735 37.7394 174.802 38.1088 174.835C38.4445 174.97 38.7803 175.104 39.1161 175.272C39.3847 175.507 39.6869 175.708 39.9555 175.943C40.3584 176.313 40.6606 176.783 40.8285 177.286C41.0299 177.622 41.1306 177.958 41.1306 178.36C41.2649 178.931 41.2314 179.468 41.0635 180.039C40.9963 180.408 40.8285 180.777 40.627 181.08C40.3248 181.617 39.6869 182.322 39.1161 182.59C38.4781 182.96 37.773 183.161 37.0343 183.161C36.4635 183.195 35.9263 183.06 35.4562 182.792C34.9526 182.624 34.5161 182.355 34.1468 181.952C34.1132 181.919 34.0796 181.919 34.0796 181.885C33.6767 181.516 33.3745 181.046 33.2066 180.542C33.0052 180.207 32.9044 179.871 32.9044 179.468C32.7701 179.099 32.7701 178.73 32.8709 178.36Z" fill="#587480"/>
<path d="M43.5148 133.845C48.9542 133.845 48.9542 142.305 43.5148 142.305C38.0755 142.305 38.0755 133.845 43.5148 133.845Z" fill="#587480"/>
<path d="M43.0783 116.792C49.2228 116.792 49.2228 126.36 43.0783 126.36C36.9339 126.36 36.9339 116.792 43.0783 116.792Z" fill="#587480"/>
<path d="M36.5644 156.942C41.9031 156.942 41.9366 165.268 36.5644 165.268C31.2258 165.268 31.1922 156.942 36.5644 156.942Z" fill="#587480"/>
<path d="M40.0228 101.249C40.4593 100.476 41.0637 99.9058 41.8359 99.4358C42.6082 98.9658 43.4812 98.7644 44.3877 98.7644C44.7906 98.7308 45.0592 98.7644 45.5293 98.8315C45.9658 98.8987 46.3016 98.9322 46.7045 99.0665C47.611 99.3351 48.4169 99.7715 49.0884 100.443C49.357 100.812 49.6592 101.181 49.9278 101.517C50.3979 102.356 50.6665 103.263 50.6665 104.236C50.7001 104.975 50.5322 105.68 50.1964 106.318C49.995 106.989 49.6256 107.56 49.0884 108.03C48.6183 108.567 48.014 108.936 47.376 109.138C46.7381 109.473 46.033 109.641 45.2943 109.608C44.3206 109.608 43.414 109.373 42.5746 108.869C42.1045 108.5 41.5002 108.131 41.1308 107.761C40.7279 107.358 40.3921 106.855 40.0899 106.351C39.0491 104.841 39.1498 102.759 40.0228 101.249Z" fill="#587480"/>
<path d="M95.6583 240.164C96.3634 245.938 108.652 252.451 126.716 258.493C152.167 266.987 189.168 274.473 221.67 277.528C277.273 282.731 305.98 269.706 310.312 266.248C314.643 262.757 316.389 254.968 305.107 252.35C305.107 241.909 328.577 204.545 339.859 185.444C351.14 166.342 364.168 130.724 346.809 86.3772C336.232 59.3864 317.833 39.7141 295.807 26.5209C232.717 -11.2124 139.912 4.43147 116.509 55.123C82.1942 129.415 122.15 201.524 110.432 228.884C102.609 229.321 95.2218 228.884 95.6583 240.164Z" fill="#31B9C8"/>
<path d="M82.295 234.557C83.0001 240.331 95.2891 246.844 113.353 252.887C116.509 245.233 126.414 238.686 136.621 223.815C149.649 200.349 123.594 85.6383 163.348 42.668C203.069 -0.369422 249.337 5.50542 282.443 20.9143C219.353 -16.819 126.549 -1.17512 103.146 49.4828C68.8309 123.774 108.787 195.884 97.0686 223.244C89.2453 223.68 81.8585 223.244 82.295 234.557Z" fill="#587480"/>
<path d="M238.19 76.2385C238.19 76.2385 217.91 80.3006 204.009 104.337C190.108 128.374 199.946 157.043 211.53 170.37C223.114 183.698 237.585 192.09 263.674 191.788C289.729 191.486 319.276 172.082 319.579 133.577C269.181 96.8173 238.19 76.2385 238.19 76.2385Z" fill="#587480"/>
<path d="M269.886 70.2964C286.271 72.5792 321.593 91.1437 319.411 128.508C317.228 165.872 288.554 184.537 258.134 184.101C227.714 183.664 211.194 159.762 205.117 138.042C199.073 116.355 216.902 62.9109 269.886 70.2964Z" fill="white"/>
<path d="M285.129 97.7234C299.399 109.104 305.309 127.4 295.706 146.636C286.103 165.905 262.768 172.888 249.136 167.181C229.191 158.822 220.999 144.991 220.629 130.824C251.923 128.373 263.775 124.58 263.775 124.58L235.269 100.275C235.269 100.275 258.873 76.809 285.129 97.7234Z" fill="#732B60"/>
<path d="M288.151 59.0166C288.151 59.0166 325.522 72.042 330.289 117.228C335.057 162.414 308.129 181.079 308.129 181.079C308.129 181.079 340.463 167.55 341.168 127.635C342.041 77.279 312.057 59.0166 288.151 59.0166Z" fill="#65CBF4"/>
<path d="M227.177 236.034C227.446 238.821 227.748 241.171 228.151 243.218C229.359 249.261 231.71 252.853 238.022 258.862C243.126 263.696 252.393 265.039 260.048 263.294C265.152 262.119 269.517 259.601 271.464 255.841C275.46 248.086 279.959 239.895 282.813 232.039C284.928 226.232 286.137 220.592 285.566 215.455C284.257 203.303 273.714 200.55 266.663 199.174C257.496 197.361 249.874 199.677 243.898 203.941C237.317 208.641 232.65 215.758 229.93 222.405C228.554 225.795 227.647 229.085 227.278 231.838C227.11 233.382 227.043 234.826 227.177 236.034Z" fill="#994C82"/>
<path d="M227.177 236.034C227.445 238.821 227.748 241.171 228.151 243.219C234.463 243.756 241.178 242.044 244.771 238.217C245.711 237.209 256.724 232.778 258.47 220.626C259.746 211.763 253.064 204.176 243.965 203.907C237.384 208.607 232.717 215.724 229.997 222.371C228.621 225.762 227.714 229.052 227.345 231.805C227.11 233.382 227.043 234.826 227.177 236.034Z" fill="#732B60"/>
<path d="M229.964 222.338C232.281 223.412 234.799 224.251 236.713 224.083C241.413 223.647 238.761 212.099 238.66 211.696C238.794 211.797 244.133 215.791 248.666 213.643C253.232 211.461 251.285 202.128 251.285 202.128C251.285 202.128 255.851 209.514 260.183 208.439C264.514 207.365 265.185 201.927 265.185 201.927C265.185 201.927 265.185 207.802 268.677 210.823C272.169 213.844 277.374 206.694 277.374 206.694C277.374 206.694 274.755 212.334 275.191 216.899C275.628 221.465 284.089 219.954 284.089 219.954C284.089 219.954 276.904 224.285 277.139 228.85C277.273 231.771 280.429 232.107 282.847 231.972C284.962 226.165 286.171 220.525 285.6 215.389C284.29 203.236 273.747 200.483 266.696 199.107C247.424 195.28 235.168 209.648 229.964 222.338Z" fill="white"/>
<path d="M227.177 236.035C228.252 247.113 229.561 250.806 238.056 258.829C241.783 262.354 247.692 264.032 253.602 263.965C255.784 263.965 258 263.697 260.082 263.227C260.35 259.333 260.25 251.477 256.086 243.588C250.983 233.953 238.291 228.078 227.345 231.738C227.11 233.383 227.043 234.826 227.177 236.035Z" fill="#F05F60"/>
<path d="M227.177 236.035C228.251 247.113 229.561 250.806 238.056 258.829C241.783 262.354 247.692 264.033 253.602 263.965C258.101 244.125 241.313 234.39 241.078 234.255C241.246 234.49 246.92 242.38 245.845 248.59C239.768 237.075 227.311 231.771 227.311 231.771C227.11 233.383 227.043 234.826 227.177 236.035Z" fill="#D14F56"/>
</g>
<defs>
<clipPath id="clip0_487:3993">
<rect width="433" height="434" fill="white"/>
</clipPath>
</defs>
</svg>
