<svg width="12" height="19" viewBox="0 0 12 19" fill="none" xmlns="http://www.w3.org/2000/svg">
<path d="M11.1151 2.49L4.24505 9.375L11.1151 16.26L9.00005 18.375L5.22852e-05 9.375L9.00005 0.375L11.1151 2.49Z" fill="white"/>
</svg>
