<svg width="32" height="32" viewBox="0 0 32 32" fill="none" xmlns="http://www.w3.org/2000/svg">
<circle cx="16" cy="16" r="15.5" fill="white" stroke="#ED2146"/>
<path d="M22.2503 10.9688H21.1581C21.0049 10.9688 20.8596 11.0391 20.7659 11.1594L14.3237 19.3203L11.2346 15.4062C11.1879 15.3469 11.1283 15.2989 11.0604 15.2659C10.9925 15.2329 10.918 15.2157 10.8424 15.2156H9.75025C9.64557 15.2156 9.58775 15.3359 9.65182 15.4172L13.9315 20.8391C14.1315 21.0922 14.5159 21.0922 14.7174 20.8391L22.3487 11.1688C22.4128 11.0891 22.3549 10.9688 22.2503 10.9688Z" fill="#ED2146"/>
</svg>
