<svg width="130" height="125" viewBox="0 0 130 125" fill="none" xmlns="http://www.w3.org/2000/svg">
<path d="M23.4426 13.4621L30.9211 33.6669C32.8647 38.9335 39.395 40.7875 43.8394 37.3512C48.2838 33.903 48.0941 27.1484 43.4601 23.9719L25.6589 11.7498C24.4737 10.935 22.9449 12.1159 23.4426 13.4621Z" fill="#664F17"/>
<path d="M106.689 13.4621L99.2104 33.6669C97.2667 38.9335 90.7365 40.7875 86.2921 37.3512C81.8477 33.903 82.0373 27.1484 86.6713 23.9719L104.484 11.7498C105.658 10.935 107.187 12.1159 106.689 13.4621Z" fill="#664F17"/>
<path d="M17.3509 65.6567C17.3509 65.6567 -12.1716 99.6541 5.80737 114.781C23.7864 129.908 31.0277 74.4779 31.0277 74.4779L17.3509 65.6567Z" fill="#DEAB31"/>
<path d="M112.295 65.6567C112.295 65.6567 141.817 99.6541 123.838 114.781C105.859 129.908 98.6179 74.4779 98.6179 74.4779L112.295 65.6567Z" fill="#DEAB31"/>
<path d="M31.3951 120.272C31.3951 120.272 5.61768 116.434 5.61768 133.888C5.61768 148.424 34.9743 145.779 44.7993 144.492C48.4496 144.008 51.6851 141.658 52.9533 138.21C54.411 134.265 53.771 128.231 45.4156 119.918L31.3951 120.272Z" fill="#DEAB31"/>
<path d="M98.4874 120.272C98.4874 120.272 124.265 116.434 124.265 133.888C124.265 148.424 94.9082 145.779 85.0832 144.492C81.4328 144.008 78.1973 141.658 76.9292 138.21C75.4715 134.265 76.1114 128.231 84.4669 119.918L98.4874 120.272Z" fill="#DEAB31"/>
<path d="M117.403 92.2499C117.403 123.508 110.149 143.228 64.9353 143.228C19.7212 143.228 12.468 123.508 12.468 92.2499C12.468 60.9922 35.958 14.4894 64.9353 14.4894C93.9127 14.4894 117.403 61.004 117.403 92.2499Z" fill="#FFC438"/>
<path d="M90.5387 63.5812C91.8576 49.4963 81.4672 37.0129 67.331 35.6988C53.1949 34.3846 40.6661 44.7374 39.3472 58.8223C38.0283 72.9072 48.4187 85.3906 62.5548 86.7048C76.691 88.0189 89.2198 77.6662 90.5387 63.5812Z" fill="#FFEDDB"/>
<path d="M77.9123 64.2434C79.5949 57.1072 75.1528 49.9631 67.9907 48.2866C60.8285 46.6101 53.6584 51.0361 51.9758 58.1723C50.2932 65.3086 54.7353 72.4527 61.8975 74.1292C69.0597 75.8056 76.2298 71.3796 77.9123 64.2434Z" fill="#FF5252"/>
<path d="M64.9353 68.3137C68.8757 68.3137 72.07 65.1309 72.07 61.2048C72.07 57.2787 68.8757 54.0959 64.9353 54.0959C60.9949 54.0959 57.8006 57.2787 57.8006 61.2048C57.8006 65.1309 60.9949 68.3137 64.9353 68.3137Z" fill="#5C1E1E"/>
<path d="M87.5128 89.0735C81.4803 91.4234 73.5279 93.6198 64.9354 93.6198C56.3429 93.6198 48.3905 91.4234 42.358 89.0735C37.5225 87.1959 32.3314 89.6875 31.2174 94.7417C30.5063 98.0009 31.8455 101.272 34.4884 103.126C38.2454 105.759 42.7372 107.601 47.0986 108.912C58.7251 112.384 71.1694 112.384 82.7959 108.912C87.1573 107.613 91.6491 105.759 95.406 103.126C98.049 101.272 99.3882 98.0009 98.6771 94.7417C97.5512 89.6875 92.3602 87.1959 87.5128 89.0735Z" fill="#5C1E1E"/>
<path d="M64.9354 99.9729C55.5488 99.9729 47.6082 103.433 44.9416 108.215C45.6527 108.463 46.3756 108.688 47.0867 108.9C58.7132 112.372 71.1575 112.372 82.784 108.9C83.4951 108.688 84.218 108.452 84.9291 108.215C82.2744 103.445 74.3219 99.9729 64.9354 99.9729Z" fill="#FF5252"/>
<path d="M63.5369 1.0157L57.0066 21.5511C55.2999 26.9004 59.3058 32.3561 64.9472 32.3561C70.5767 32.3561 74.5826 26.9004 72.8878 21.5511L66.3339 1.0157C65.9072 -0.342309 63.9754 -0.342309 63.5369 1.0157Z" fill="#664F17"/>
<path d="M26.0618 87.125C29.5637 87.125 32.4025 84.2964 32.4025 80.8073C32.4025 77.3181 29.5637 74.4896 26.0618 74.4896C22.56 74.4896 19.7212 77.3181 19.7212 80.8073C19.7212 84.2964 22.56 87.125 26.0618 87.125Z" fill="#FF6E40"/>
<path d="M103.809 87.125C107.311 87.125 110.149 84.2964 110.149 80.8073C110.149 77.3181 107.311 74.4896 103.809 74.4896C100.307 74.4896 97.4681 77.3181 97.4681 80.8073C97.4681 84.2964 100.307 87.125 103.809 87.125Z" fill="#FF6E40"/>
<path d="M74.5233 57.1897C74.5233 59.5869 72.5678 61.5353 70.1619 61.5353C67.756 61.5353 65.8005 59.5869 65.8005 57.1897C65.8005 54.7926 67.756 52.8441 70.1619 52.8441C72.5678 52.8441 74.5233 54.7926 74.5233 57.1897Z" fill="white"/>
<path d="M50.1564 93.419L50.4764 91.6831C47.5253 90.9274 44.7757 90.0181 42.358 89.0734C41.398 88.6955 40.4143 88.5066 39.4662 88.4594L38.9329 91.3289C38.3521 94.4228 40.4025 97.3867 43.4958 97.9654C46.589 98.544 49.5757 96.5129 50.1564 93.419Z" fill="#FFEDDB"/>
<path d="M90.3691 88.4594C89.421 88.5066 88.461 88.6955 87.5129 89.0734C85.0833 90.0181 82.3455 90.9274 79.3826 91.6831L80.39 94.2929C81.5159 97.2332 84.8225 98.6975 87.7618 97.5757C90.7128 96.4539 92.1824 93.1592 91.0565 90.2307L90.3691 88.4594Z" fill="#FFEDDB"/>
<path d="M70.6479 95.391V93.2891C68.7872 93.4898 66.8791 93.6197 64.9354 93.6197C62.9918 93.6197 61.0836 93.4898 59.2229 93.2891V95.391C59.2229 98.5321 61.7829 101.083 64.9354 101.083C68.088 101.083 70.6479 98.5321 70.6479 95.391Z" fill="#FFEDDB"/>
</svg>
