<svg width="24" height="22" viewBox="0 0 24 22" fill="none" xmlns="http://www.w3.org/2000/svg">
<path d="M1.09784 5.33169C1.35955 4.31548 2.13064 3.51514 3.10968 3.24354C4.88426 2.75 12.0001 2.75 12.0001 2.75C12.0001 2.75 19.116 2.75 20.8906 3.24354C21.8696 3.51519 22.6407 4.31548 22.9024 5.33169C23.3779 7.17363 23.3779 11.0167 23.3779 11.0167C23.3779 11.0167 23.3779 14.8597 22.9024 16.7017C22.6407 17.7179 21.8696 18.4849 20.8906 18.7565C19.116 19.25 12.0001 19.25 12.0001 19.25C12.0001 19.25 4.8843 19.25 3.10968 18.7565C2.13064 18.4849 1.35955 17.7179 1.09784 16.7017C0.622343 14.8597 0.622345 11.0167 0.622345 11.0167C0.622345 11.0167 0.622343 7.17363 1.09784 5.33169ZM14.3274 14.5059V7.52748L8.37997 11.0168L14.3274 14.5059Z" fill="white"/>
</svg>
